359434 181653 443
830458 153334 509
928342 48360 525
145354 822455 509
29510 717356 509
628689 971168 525
525098 277733 470
806073 252312 509
978131 210270 525
302498 512842 470
186357 891949 525
95877 680491 509
581881 483199 470
719849 331619 509
268771 682766 509
430518 521319 470
41402 592304 470
124428 148622 375
192627 912745 525
864052 934929 476
35491 201459 383
476416 698427 509
684105 140140 509
914142 192201 525
784819 853255 525
877115 946920 507
329182 132824 443
508585 881766 525
241848 325383 407
436748 195919 449
852047 912875 476
641756 663321 429
269979 772943 509
747803 169241 509
275717 837852 525
372526 758478 509
295067 160170 443
711385 292094 509
320795 447027 449
838467 645060 525
448755 970156 525
11241 40526 324
464795 899250 525
450531 861068 525
449185 469387 444
92357 904499 525
264615 47841 443
224847 238360 443
213859 641203 509
232853 194114 443
603204 614129 403
85231 572796 470
386467 46259 443
967917 532779 525
632723 688741 442
831196 813127 450
657496 985231 525
108373 104695 354
35934 564872 470
428576 247466 449
63494 407635 443
259713 422405 449
330382 714240 509
940647 791788 525
561865 563280 359
787082 741389 468
594934 434893 470
245884 879827 525
337871 494887 449
795937 448033 509
269868 338491 407
998780 899264 507
954255 764725 525
243810 323083 407
491613 798379 509
671777 91577 509
523073 963950 525
621806 729963 509
764637 796074 468
749078 713287 424
96834 905271 525
125888 888951 525
80160 213485 383
931797 165746 525
19078 143343 375
427280 103776 449
228607 18699 386
435987 508832 444
741178 554681 509
735191 206612 509
18298 285659 443
788801 798935 468
558474 478938 470
855273 619577 525
924992 297639 525
617027 577052 447
759119 183741 509
182952 415308 449
866622 82703 525
151861 466630 449
425178 129951 449
